ComputerArchitecture/DEUSEM/CA_ControlUnit/simulation/qsim/DEUSEM.msim.vcd
$comment
	File created using the following command:
		vcd file DEUSEM.msim.vcd -direction
$end
$date
	Thu May 10 23:21:14 2018
$end
$version
	ModelSim Version 10.1d
$end
$timescale
	1ps
$end
$scope module Common_Bus_System_vlg_vec_tst $end
$var reg 1 ! Clock1x $end
$var reg 1 " Clock2x $end
$var reg 4 # DataIn [3:0] $end
$var wire 1 $ data [3] $end
$var wire 1 % data [2] $end
$var wire 1 & data [1] $end
$var wire 1 ' data [0] $end
$var wire 1 ( DataOut [3] $end
$var wire 1 ) DataOut [2] $end
$var wire 1 * DataOut [1] $end
$var wire 1 + DataOut [0] $end
$var wire 1 , IR_input [10] $end
$var wire 1 - IR_input [9] $end
$var wire 1 . IR_input [8] $end
$var wire 1 / IR_input [7] $end
$var wire 1 0 IR_input [6] $end
$var wire 1 1 IR_input [5] $end
$var wire 1 2 IR_input [4] $end
$var wire 1 3 IR_input [3] $end
$var wire 1 4 IR_input [2] $end
$var wire 1 5 IR_input [1] $end
$var wire 1 6 IR_input [0] $end
$var wire 1 7 sampler $end
$scope module i1 $end
$var wire 1 8 gnd $end
$var wire 1 9 vcc $end
$var wire 1 : unknown $end
$var tri1 1 ; devclrn $end
$var tri1 1 < devpor $end
$var tri1 1 = devoe $end
$var wire 1 > inst8|SC|LPM_COUNTER_component|auto_generated|counter_comb_bita2~COUT $end
$var wire 1 ? inst8|SC|LPM_COUNTER_component|auto_generated|counter_comb_bita3~combout $end
$var wire 1 @ DataIn[3]~input_o $end
$var wire 1 A DataIn[2]~input_o $end
$var wire 1 B DataIn[1]~input_o $end
$var wire 1 C DataIn[0]~input_o $end
$var wire 1 D Clock1x~input_o $end
$var wire 1 E Clock1x~inputclkctrl_outclk $end
$var wire 1 F data[3]~output_o $end
$var wire 1 G data[2]~output_o $end
$var wire 1 H data[1]~output_o $end
$var wire 1 I data[0]~output_o $end
$var wire 1 J DataOut[3]~output_o $end
$var wire 1 K DataOut[2]~output_o $end
$var wire 1 L DataOut[1]~output_o $end
$var wire 1 M DataOut[0]~output_o $end
$var wire 1 N IR_input[10]~output_o $end
$var wire 1 O IR_input[9]~output_o $end
$var wire 1 P IR_input[8]~output_o $end
$var wire 1 Q IR_input[7]~output_o $end
$var wire 1 R IR_input[6]~output_o $end
$var wire 1 S IR_input[5]~output_o $end
$var wire 1 T IR_input[4]~output_o $end
$var wire 1 U IR_input[3]~output_o $end
$var wire 1 V IR_input[2]~output_o $end
$var wire 1 W IR_input[1]~output_o $end
$var wire 1 X IR_input[0]~output_o $end
$var wire 1 Y inst8|SC|LPM_COUNTER_component|auto_generated|counter_comb_bita0~combout $end
$var wire 1 Z inst8|SC|LPM_COUNTER_component|auto_generated|counter_comb_bita0~COUT $end
$var wire 1 [ inst8|SC|LPM_COUNTER_component|auto_generated|counter_comb_bita1~combout $end
$var wire 1 \ inst8|SC|LPM_COUNTER_component|auto_generated|counter_comb_bita1~COUT $end
$var wire 1 ] inst8|SC|LPM_COUNTER_component|auto_generated|counter_comb_bita2~combout $end
$var wire 1 ^ inst8|inst4|LPM_DECODE_component|auto_generated|w_anode4w[3]~0_combout $end
$var wire 1 _ Clock2x~input_o $end
$var wire 1 ` Clock2x~inputclkctrl_outclk $end
$var wire 1 a ~GND~combout $end
$var wire 1 b inst8|SC|LPM_COUNTER_component|auto_generated|counter_reg_bit [3] $end
$var wire 1 c inst8|SC|LPM_COUNTER_component|auto_generated|counter_reg_bit [2] $end
$var wire 1 d inst8|SC|LPM_COUNTER_component|auto_generated|counter_reg_bit [1] $end
$var wire 1 e inst8|SC|LPM_COUNTER_component|auto_generated|counter_reg_bit [0] $end
$var wire 1 f sadsaf|altsyncram_component|auto_generated|q_a [10] $end
$var wire 1 g sadsaf|altsyncram_component|auto_generated|q_a [9] $end
$var wire 1 h sadsaf|altsyncram_component|auto_generated|q_a [8] $end
$var wire 1 i sadsaf|altsyncram_component|auto_generated|q_a [7] $end
$var wire 1 j sadsaf|altsyncram_component|auto_generated|q_a [6] $end
$var wire 1 k sadsaf|altsyncram_component|auto_generated|q_a [5] $end
$var wire 1 l sadsaf|altsyncram_component|auto_generated|q_a [4] $end
$var wire 1 m sadsaf|altsyncram_component|auto_generated|q_a [3] $end
$var wire 1 n sadsaf|altsyncram_component|auto_generated|q_a [2] $end
$var wire 1 o sadsaf|altsyncram_component|auto_generated|q_a [1] $end
$var wire 1 p sadsaf|altsyncram_component|auto_generated|q_a [0] $end
$var wire 1 q sadsaf|altsyncram_component|auto_generated|ram_block1a0_PORTADATAOUT_bus [17] $end
$var wire 1 r sadsaf|altsyncram_component|auto_generated|ram_block1a0_PORTADATAOUT_bus [16] $end
$var wire 1 s sadsaf|altsyncram_component|auto_generated|ram_block1a0_PORTADATAOUT_bus [15] $end
$var wire 1 t sadsaf|altsyncram_component|auto_generated|ram_block1a0_PORTADATAOUT_bus [14] $end
$var wire 1 u sadsaf|altsyncram_component|auto_generated|ram_block1a0_PORTADATAOUT_bus [13] $end
$var wire 1 v sadsaf|altsyncram_component|auto_generated|ram_block1a0_PORTADATAOUT_bus [12] $end
$var wire 1 w sadsaf|altsyncram_component|auto_generated|ram_block1a0_PORTADATAOUT_bus [11] $end
$var wire 1 x sadsaf|altsyncram_component|auto_generated|ram_block1a0_PORTADATAOUT_bus [10] $end
$var wire 1 y sadsaf|altsyncram_component|auto_generated|ram_block1a0_PORTADATAOUT_bus [9] $end
$var wire 1 z sadsaf|altsyncram_component|auto_generated|ram_block1a0_PORTADATAOUT_bus [8] $end
$var wire 1 { sadsaf|altsyncram_component|auto_generated|ram_block1a0_PORTADATAOUT_bus [7] $end
$var wire 1 | sadsaf|altsyncram_component|auto_generated|ram_block1a0_PORTADATAOUT_bus [6] $end
$var wire 1 } sadsaf|altsyncram_component|auto_generated|ram_block1a0_PORTADATAOUT_bus [5] $end
$var wire 1 ~ sadsaf|altsyncram_component|auto_generated|ram_block1a0_PORTADATAOUT_bus [4] $end
$var wire 1 !! sadsaf|altsyncram_component|auto_generated|ram_block1a0_PORTADATAOUT_bus [3] $end
$var wire 1 "! sadsaf|altsyncram_component|auto_generated|ram_block1a0_PORTADATAOUT_bus [2] $end
$var wire 1 #! sadsaf|altsyncram_component|auto_generated|ram_block1a0_PORTADATAOUT_bus [1] $end
$var wire 1 $! sadsaf|altsyncram_component|auto_generated|ram_block1a0_PORTADATAOUT_bus [0] $end
$upscope $end
$upscope $end
$enddefinitions $end
#0
$dumpvars
0!
0"
bx #
0'
0&
0%
0$
0+
0*
0)
0(
06
05
04
03
02
01
00
0/
0.
0-
0,
x7
08
19
x:
1;
1<
1=
0>
0?
x@
xA
xB
xC
0D
0E
0F
0G
0H
0I
0J
0K
0L
0M
0N
0O
0P
0Q
0R
0S
0T
0U
0V
0W
0X
1Y
0Z
0[
1\
0]
1^
0_
0`
0a
0e
0d
0c
0b
0p
0o
0n
0m
0l
0k
0j
0i
0h
0g
0f
0$!
0#!
0"!
0!!
0~
0}
0|
0{
0z
0y
0x
0w
0v
0u
0t
0s
0r
0q
$end
#2500
1"
1_
1`
07
#5000
0"
0_
0`
17
#7500
1"
1_
1`
07
1~
1|
1l
1j
1T
1R
12
10
#10000
1!
0"
1D
0_
1E
0`
17
1e
0^
1Z
0Y
1[
#12500
1"
1_
1`
07
#15000
0"
0_
0`
17
#17500
1"
1_
1`
07
#20000
0!
0"
0D
0_
0E
0`
17
#22500
1"
1_
1`
07
#25000
0"
0_
0`
17
#27500
1"
1_
1`
07
#30000
1!
0"
1D
0_
1E
0`
17
1d
0e
0\
0[
0Z
1Y
1]
1\
1[
0]
#32500
1"
1_
1`
07
#35000
0"
0_
0`
17
#37500
1"
1_
1`
07
#40000
0!
0"
0D
0_
0E
0`
17
#42500
1"
1_
1`
07
#45000
0"
0_
0`
17
#47500
1"
1_
1`
07
#50000
1!
0"
1D
0_
1E
0`
17
1e
1Z
0Y
0\
0[
1]
#52500
1"
1_
1`
07
#55000
0"
0_
0`
17
#57500
1"
1_
1`
07
#60000
0!
0"
0D
0_
0E
0`
17
#62500
1"
1_
1`
07
#65000
0"
0_
0`
17
#67500
1"
1_
1`
07
#70000
1!
0"
1D
0_
1E
0`
17
1c
0d
0e
1>
0]
1\
1[
0Z
1Y
1?
0>
1]
0[
0?
#72500
1"
1_
1`
07
#75000
0"
0_
0`
17
#77500
1"
1_
1`
07
#80000
0!
0"
0D
0_
0E
0`
17
#82500
1"
1_
1`
07
#85000
0"
0_
0`
17
#87500
1"
1_
1`
07
#90000
1!
0"
1D
0_
1E
0`
17
1e
1Z
0Y
1[
#92500
1"
1_
1`
07
#95000
0"
0_
0`
17
#97500
1"
1_
1`
07
#100000
0!
0"
0D
0_
0E
0`
17
#102500
1"
1_
1`
07
#105000
0"
0_
0`
17
#107500
1"
1_
1`
07
#110000
1!
0"
1D
0_
1E
0`
17
1d
0e
0\
0[
0Z
1Y
1>
0]
1\
1[
1?
0>
1]
0?
#112500
1"
1_
1`
07
#115000
0"
0_
0`
17
#117500
1"
1_
1`
07
#120000
0!
0"
0D
0_
0E
0`
17
#122500
1"
1_
1`
07
#125000
0"
0_
0`
17
#127500
1"
1_
1`
07
#130000
1!
0"
1D
0_
1E
0`
17
1e
1Z
0Y
0\
0[
1>
0]
1?
#132500
1"
1_
1`
07
#135000
0"
0_
0`
17
#137500
1"
1_
1`
07
#140000
0!
0"
0D
0_
0E
0`
17
#142500
1"
1_
1`
07
#145000
0"
0_
0`
17
#147500
1"
1_
1`
07
#150000
1!
0"
1D
0_
1E
0`
17
0c
0d
0e
1b
0>
1]
1\
1[
0Z
1Y
0?
1?
0]
0[
#152500
1"
1_
1`
07
#155000
0"
0_
0`
17
#157500
1"
1_
1`
07
#160000
0!
0"
0D
0_
0E
0`
17
#162500
1"
1_
1`
07
#165000
0"
0_
0`
17
#167500
1"
1_
1`
07
#170000
1!
0"
1D
0_
1E
0`
17
1e
1Z
0Y
1[
#172500
1"
1_
1`
07
#175000
0"
0_
0`
17
#177500
1"
1_
1`
07
#180000
0!
0"
0D
0_
0E
0`
17
#182500
1"
1_
1`
07
#185000
0"
0_
0`
17
#187500
1"
1_
1`
07
#190000
1!
0"
1D
0_
1E
0`
17
1d
0e
0\
0[
0Z
1Y
1]
1\
1[
0]
#192500
1"
1_
1`
07
#195000
0"
0_
0`
17
#197500
1"
1_
1`
07
#200000
0!
0"
0D
0_
0E
0`
17
#202500
1"
1_
1`
07
#205000
0"
0_
0`
17
#207500
1"
1_
1`
07
#210000
1!
0"
1D
0_
1E
0`
17
1e
1Z
0Y
0\
0[
1]
#212500
1"
1_
1`
07
#215000
0"
0_
0`
17
#217500
1"
1_
1`
07
#220000
0!
0"
0D
0_
0E
0`
17
#222500
1"
1_
1`
07
#225000
0"
0_
0`
17
#227500
1"
1_
1`
07
#230000
1!
0"
1D
0_
1E
0`
17
1c
0d
0e
1>
0]
1\
1[
0Z
1Y
0?
0>
1]
0[
1?
#232500
1"
1_
1`
07
#235000
0"
0_
0`
17
#237500
1"
1_
1`
07
#240000
0!
0"
0D
0_
0E
0`
17
#242500
1"
1_
1`
07
#245000
0"
0_
0`
17
#247500
1"
1_
1`
07
#250000
1!
0"
1D
0_
1E
0`
17
1e
1Z
0Y
1[
#252500
1"
1_
1`
07
#255000
0"
0_
0`
17
#257500
1"
1_
1`
07
#260000
0!
0"
0D
0_
0E
0`
17
#262500
1"
1_
1`
07
#265000
0"
0_
0`
17
#267500
1"
1_
1`
07
#270000
1!
0"
1D
0_
1E
0`
17
1d
0e
0\
0[
0Z
1Y
1>
0]
1\
1[
0?
0>
1]
1?
#272500
1"
1_
1`
07
#275000
0"
0_
0`
17
#277500
1"
1_
1`
07
#280000
0!
0"
0D
0_
0E
0`
17
#282500
1"
1_
1`
07
#285000
0"
0_
0`
17
#287500
1"
1_
1`
07
#290000
1!
0"
1D
0_
1E
0`
17
1e
1Z
0Y
0\
0[
1>
0]
0?
#292500
1"
1_
1`
07
#295000
0"
0_
0`
17
#297500
1"
1_
1`
07
#300000
0!
0"
0D
0_
0E
0`
17
#302500
1"
1_
1`
07
#305000
0"
0_
0`
17
#307500
1"
1_
1`
07
#310000
1!
0"
1D
0_
1E
0`
17
0c
0d
0e
0b
1^
0>
1]
1\
1[
0Z
1Y
1?
0?
0]
0[
#312500
1"
1_
1`
07
#315000
0"
0_
0`
17
#317500
1"
1_
1`
07
#320000
0!
0"
0D
0_
0E
0`
17
#322500
1"
1_
1`
07
#325000
0"
0_
0`
17
#327500
1"
1_
1`
07
#330000
1!
0"
1D
0_
1E
0`
17
1e
0^
1Z
0Y
1[
#332500
1"
1_
1`
07
#335000
0"
0_
0`
17
#337500
1"
1_
1`
07
#340000
0!
0"
0D
0_
0E
0`
17
#342500
1"
1_
1`
07
#345000
0"
0_
0`
17
#347500
1"
1_
1`
07
#350000
1!
0"
1D
0_
1E
0`
17
1d
0e
0\
0[
0Z
1Y
1]
1\
1[
0]
#352500
1"
1_
1`
07
#355000
0"
0_
0`
17
#357500
1"
1_
1`
07
#360000
0!
0"
0D
0_
0E
0`
17
#362500
1"
1_
1`
07
#365000
0"
0_
0`
17
#367500
1"
1_
1`
07
#370000
1!
0"
1D
0_
1E
0`
17
1e
1Z
0Y
0\
0[
1]
#372500
1"
1_
1`
07
#375000
0"
0_
0`
17
#377500
1"
1_
1`
07
#380000
0!
0"
0D
0_
0E
0`
17
#382500
1"
1_
1`
07
#385000
0"
0_
0`
17
#387500
1"
1_
1`
07
#390000
1!
0"
1D
0_
1E
0`
17
1c
0d
0e
1>
0]
1\
1[
0Z
1Y
1?
0>
1]
0[
0?
#392500
1"
1_
1`
07
#395000
0"
0_
0`
17
#397500
1"
1_
1`
07
#400000
0!
0"
0D
0_
0E
0`
17
#402500
1"
1_
1`
07
#405000
0"
0_
0`
17
#407500
1"
1_
1`
07
#410000
1!
0"
1D
0_
1E
0`
17
1e
1Z
0Y
1[
#412500
1"
1_
1`
07
#415000
0"
0_
0`
17
#417500
1"
1_
1`
07
#420000
0!
0"
0D
0_
0E
0`
17
#422500
1"
1_
1`
07
#425000
0"
0_
0`
17
#427500
1"
1_
1`
07
#430000
1!
0"
1D
0_
1E
0`
17
1d
0e
0\
0[
0Z
1Y
1>
0]
1\
1[
1?
0>
1]
0?
#432500
1"
1_
1`
07
#435000
0"
0_
0`
17
#437500
1"
1_
1`
07
#440000
0!
0"
0D
0_
0E
0`
17
#442500
1"
1_
1`
07
#445000
0"
0_
0`
17
#447500
1"
1_
1`
07
#450000
1!
0"
1D
0_
1E
0`
17
1e
1Z
0Y
0\
0[
1>
0]
1?
#452500
1"
1_
1`
07
#455000
0"
0_
0`
17
#457500
1"
1_
1`
07
#460000
0!
0"
0D
0_
0E
0`
17
#462500
1"
1_
1`
07
#465000
0"
0_
0`
17
#467500
1"
1_
1`
07
#470000
1!
0"
1D
0_
1E
0`
17
0c
0d
0e
1b
0>
1]
1\
1[
0Z
1Y
0?
1?
0]
0[
#472500
1"
1_
1`
07
#475000
0"
0_
0`
17
#477500
1"
1_
1`
07
#480000
0!
0"
0D
0_
0E
0`
17
#482500
1"
1_
1`
07
#485000
0"
0_
0`
17
#487500
1"
1_
1`
07
#490000
1!
0"
1D
0_
1E
0`
17
1e
1Z
0Y
1[
#492500
1"
1_
1`
07
#495000
0"
0_
0`
17
#497500
1"
1_
1`
07
#500000
0!
0"
0D
0_
0E
0`
17
#502500
1"
1_
1`
07
#505000
0"
0_
0`
17
#507500
1"
1_
1`
07
#510000
1!
0"
1D
0_
1E
0`
17
1d
0e
0\
0[
0Z
1Y
1]
1\
1[
0]
#512500
1"
1_
1`
07
#515000
0"
0_
0`
17
#517500
1"
1_
1`
07
#520000
0!
0"
0D
0_
0E
0`
17
#522500
1"
1_
1`
07
#525000
0"
0_
0`
17
#527500
1"
1_
1`
07
#530000
1!
0"
1D
0_
1E
0`
17
1e
1Z
0Y
0\
0[
1]
#532500
1"
1_
1`
07
#535000
0"
0_
0`
17
#537500
1"
1_
1`
07
#540000
0!
0"
0D
0_
0E
0`
17
#542500
1"
1_
1`
07
#545000
0"
0_
0`
17
#547500
1"
1_
1`
07
#550000
1!
0"
1D
0_
1E
0`
17
1c
0d
0e
1>
0]
1\
1[
0Z
1Y
0?
0>
1]
0[
1?
#552500
1"
1_
1`
07
#555000
0"
0_
0`
17
#557500
1"
1_
1`
07
#560000
0!
0"
0D
0_
0E
0`
17
#562500
1"
1_
1`
07
#565000
0"
0_
0`
17
#567500
1"
1_
1`
07
#570000
1!
0"
1D
0_
1E
0`
17
1e
1Z
0Y
1[
#572500
1"
1_
1`
07
#575000
0"
0_
0`
17
#577500
1"
1_
1`
07
#580000
0!
0"
0D
0_
0E
0`
17
#582500
1"
1_
1`
07
#585000
0"
0_
0`
17
#587500
1"
1_
1`
07
#590000
1!
0"
1D
0_
1E
0`
17
1d
0e
0\
0[
0Z
1Y
1>
0]
1\
1[
0?
0>
1]
1?
#592500
1"
1_
1`
07
#595000
0"
0_
0`
17
#597500
1"
1_
1`
07
#600000
0!
0"
0D
0_
0E
0`
17
#602500
1"
1_
1`
07
#605000
0"
0_
0`
17
#607500
1"
1_
1`
07
#610000
1!
0"
1D
0_
1E
0`
17
1e
1Z
0Y
0\
0[
1>
0]
0?
#612500
1"
1_
1`
07
#615000
0"
0_
0`
17
#617500
1"
1_
1`
07
#620000
0!
0"
0D
0_
0E
0`
17
#622500
1"
1_
1`
07
#625000
0"
0_
0`
17
#627500
1"
1_
1`
07
#630000
1!
0"
1D
0_
1E
0`
17
0c
0d
0e
0b
1^
0>
1]
1\
1[
0Z
1Y
1?
0?
0]
0[
#632500
1"
1_
1`
07
#635000
0"
0_
0`
17
#637500
1"
1_
1`
07
#640000
0!
0"
0D
0_
0E
0`
17
#642500
1"
1_
1`
07
#645000
0"
0_
0`
17
#647500
1"
1_
1`
07
#650000
1!
0"
1D
0_
1E
0`
17
1e
0^
1Z
0Y
1[
#652500
1"
1_
1`
07
#655000
0"
0_
0`
17
#657500
1"
1_
1`
07
#660000
0!
0"
0D
0_
0E
0`
17
#662500
1"
1_
1`
07
#665000
0"
0_
0`
17
#667500
1"
1_
1`
07
#670000
1!
0"
1D
0_
1E
0`
17
1d
0e
0\
0[
0Z
1Y
1]
1\
1[
0]
#672500
1"
1_
1`
07
#675000
0"
0_
0`
17
#677500
1"
1_
1`
07
#680000
0!
0"
0D
0_
0E
0`
17
#682500
1"
1_
1`
07
#685000
0"
0_
0`
17
#687500
1"
1_
1`
07
#690000
1!
0"
1D
0_
1E
0`
17
1e
1Z
0Y
0\
0[
1]
#692500
1"
1_
1`
07
#695000
0"
0_
0`
17
#697500
1"
1_
1`
07
#700000
0!
0"
0D
0_
0E
0`
17
#702500
1"
1_
1`
07
#705000
0"
0_
0`
17
#707500
1"
1_
1`
07
#710000
1!
0"
1D
0_
1E
0`
17
1c
0d
0e
1>
0]
1\
1[
0Z
1Y
1?
0>
1]
0[
0?
#712500
1"
1_
1`
07
#715000
0"
0_
0`
17
#717500
1"
1_
1`
07
#720000
0!
0"
0D
0_
0E
0`
17
#722500
1"
1_
1`
07
#725000
0"
0_
0`
17
#727500
1"
1_
1`
07
#730000
1!
0"
1D
0_
1E
0`
17
1e
1Z
0Y
1[
#732500
1"
1_
1`
07
#735000
0"
0_
0`
17
#737500
1"
1_
1`
07
#740000
0!
0"
0D
0_
0E
0`
17
#742500
1"
1_
1`
07
#745000
0"
0_
0`
17
#747500
1"
1_
1`
07
#750000
1!
0"
1D
0_
1E
0`
17
1d
0e
0\
0[
0Z
1Y
1>
0]
1\
1[
1?
0>
1]
0?
#752500
1"
1_
1`
07
#755000
0"
0_
0`
17
#757500
1"
1_
1`
07
#760000
0!
0"
0D
0_
0E
0`
17
#762500
1"
1_
1`
07
#765000
0"
0_
0`
17
#767500
1"
1_
1`
07
#770000
1!
0"
1D
0_
1E
0`
17
1e
1Z
0Y
0\
0[
1>
0]
1?
#772500
1"
1_
1`
07
#775000
0"
0_
0`
17
#777500
1"
1_
1`
07
#780000
0!
0"
0D
0_
0E
0`
17
#782500
1"
1_
1`
07
#785000
0"
0_
0`
17
#787500
1"
1_
1`
07
#790000
1!
0"
1D
0_
1E
0`
17
0c
0d
0e
1b
0>
1]
1\
1[
0Z
1Y
0?
1?
0]
0[
#792500
1"
1_
1`
07
#795000
0"
0_
0`
17
#797500
1"
1_
1`
07
#800000
0!
0"
0D
0_
0E
0`
17
#802500
1"
1_
1`
07
#805000
0"
0_
0`
17
#807500
1"
1_
1`
07
#810000
1!
0"
1D
0_
1E
0`
17
1e
1Z
0Y
1[
#812500
1"
1_
1`
07
#815000
0"
0_
0`
17
#817500
1"
1_
1`
07
#820000
0!
0"
0D
0_
0E
0`
17
#822500
1"
1_
1`
07
#825000
0"
0_
0`
17
#827500
1"
1_
1`
07
#830000
1!
0"
1D
0_
1E
0`
17
1d
0e
0\
0[
0Z
1Y
1]
1\
1[
0]
#832500
1"
1_
1`
07
#835000
0"
0_
0`
17
#837500
1"
1_
1`
07
#840000
0!
0"
0D
0_
0E
0`
17
#842500
1"
1_
1`
07
#845000
0"
0_
0`
17
#847500
1"
1_
1`
07
#850000
1!
0"
1D
0_
1E
0`
17
1e
1Z
0Y
0\
0[
1]
#852500
1"
1_
1`
07
#855000
0"
0_
0`
17
#857500
1"
1_
1`
07
#860000
0!
0"
0D
0_
0E
0`
17
#862500
1"
1_
1`
07
#865000
0"
0_
0`
17
#867500
1"
1_
1`
07
#870000
1!
0"
1D
0_
1E
0`
17
1c
0d
0e
1>
0]
1\
1[
0Z
1Y
0?
0>
1]
0[
1?
#872500
1"
1_
1`
07
#875000
0"
0_
0`
17
#877500
1"
1_
1`
07
#880000
0!
0"
0D
0_
0E
0`
17
#882500
1"
1_
1`
07
#885000
0"
0_
0`
17
#887500
1"
1_
1`
07
#890000
1!
0"
1D
0_
1E
0`
17
1e
1Z
0Y
1[
#892500
1"
1_
1`
07
#895000
0"
0_
0`
17
#897500
1"
1_
1`
07
#900000
0!
0"
0D
0_
0E
0`
17
#902500
1"
1_
1`
07
#905000
0"
0_
0`
17
#907500
1"
1_
1`
07
#910000
1!
0"
1D
0_
1E
0`
17
1d
0e
0\
0[
0Z
1Y
1>
0]
1\
1[
0?
0>
1]
1?
#912500
1"
1_
1`
07
#915000
0"
0_
0`
17
#917500
1"
1_
1`
07
#920000
0!
0"
0D
0_
0E
0`
17
#922500
1"
1_
1`
07
#925000
0"
0_
0`
17
#927500
1"
1_
1`
07
#930000
1!
0"
1D
0_
1E
0`
17
1e
1Z
0Y
0\
0[
1>
0]
0?
#932500
1"
1_
1`
07
#935000
0"
0_
0`
17
#937500
1"
1_
1`
07
#940000
0!
0"
0D
0_
0E
0`
17
#942500
1"
1_
1`
07
#945000
0"
0_
0`
17
#947500
1"
1_
1`
07
#950000
1!
0"
1D
0_
1E
0`
17
0c
0d
0e
0b
1^
0>
1]
1\
1[
0Z
1Y
1?
0?
0]
0[
#952500
1"
1_
1`
07
#955000
0"
0_
0`
17
#957500
1"
1_
1`
07
#960000
0!
0"
0D
0_
0E
0`
17
#962500
1"
1_
1`
07
#965000
0"
0_
0`
17
#967500
1"
1_
1`
07
#970000
1!
0"
1D
0_
1E
0`
17
1e
0^
1Z
0Y
1[
#972500
1"
1_
1`
07
#975000
0"
0_
0`
17
#977500
1"
1_
1`
07
#980000
0!
0"
0D
0_
0E
0`
17
#982500
1"
1_
1`
07
#985000
0"
0_
0`
17
#987500
1"
1_
1`
07
#990000
1!
0"
1D
0_
1E
0`
17
1d
0e
0\
0[
0Z
1Y
1]
1\
1[
0]
#992500
1"
1_
1`
07
#995000
0"
0_
0`
17
#997500
1"
1_
1`
07
